{
  "name": "05_Condicionales",
  "description": "If-Else, Switch en Secuencias y en Flowcharts",
  "main": "Flowchart_If.xaml",
  "dependencies": {
    "UiPath.Excel.Activities": "[2.10.4]",
    "UiPath.Mail.Activities": "[1.10.5]",
    "UiPath.System.Activities": "[21.4.1]",
    "UiPath.UIAutomation.Activities": "[21.4.4]"
  },
  "webServices": [],
  "entitiesStores": [],
  "schemaVersion": "4.0",
  "studioVersion": "21.4.4.0",
  "projectVersion": "1.0.0",
  "runtimeOptions": {
    "autoDispose": false,
    "isPausable": true,
    "requiresUserInteraction": true,
    "supportsPersistence": false,
    "excludedLoggedData": [
      "Private:*",
      "*password*"
    ],
    "executionType": "Workflow",
    "readyForPiP": false,
    "startsInPiP": false
  },
  "designOptions": {
    "projectProfile": "Developement",
    "outputType": "Process",
    "libraryOptions": {
      "includeOriginalXaml": false,
      "privateWorkflows": []
    },
    "processOptions": {
      "ignoredFiles": []
    },
    "fileInfoCollection": [],
    "modernBehavior": false
  },
  "expressionLanguage": "VisualBasic",
  "entryPoints": [
    {
      "filePath": "Main.xaml",
      "uniqueId": "8c9ec6fa-70d8-4b76-84c4-e376f41530f3",
      "input": [],
      "output": []
    },
    {
      "filePath": "Flowchart_If.xaml",
      "uniqueId": "2e370afd-6683-4a4a-b8e6-8021d40e8624",
      "input": [],
      "output": []
    }
  ],
  "isTemplate": false,
  "templateProjectData": {},
  "publishData": {},
  "targetFramework": "Legacy"
}